@startuml

title __APP's Class Diagram__\n

  namespace com.svarogsoft.englishblitz {
    class com.svarogsoft.englishblitz.BuildConfig {
    }
  }
  

  namespace com.svarogsoft.englishblitz {
    namespace data {
      class com.svarogsoft.englishblitz.studylogic.Card {
      }
    }
  }
  

  namespace com.svarogsoft.englishblitz {
    namespace data {
      class com.svarogsoft.englishblitz.data.CardModelTest {
      }
    }
  }
  

  namespace com.svarogsoft.englishblitz {
    namespace data {
      class com.svarogsoft.englishblitz.data.DataApp {
      }
    }
  }
  

  namespace com.svarogsoft.englishblitz {
    namespace data {
      class com.svarogsoft.englishblitz.data.DataAppHelper {
      }
    }
  }
  

  namespace com.svarogsoft.englishblitz {
    namespace data {
      class com.svarogsoft.englishblitz.data.DatabaseAdapter {
      }
    }
  }
  

  namespace com.svarogsoft.englishblitz {
    namespace data {
      class com.svarogsoft.englishblitz.data.DatabaseHelper {
      }
    }
  }
  

  namespace com.svarogsoft.englishblitz {
    namespace data {
      class com.svarogsoft.englishblitz.studylogic.DatabaseImportModel {
      }
    }
  }
  

  namespace com.svarogsoft.englishblitz {
    namespace data {
      class com.svarogsoft.englishblitz.card.DeckModel {
      }
    }
  }
  

  namespace com.svarogsoft.englishblitz {
    namespace data {
      class com.svarogsoft.englishblitz.importlogic.FileManager {
      }
    }
  }
  

  namespace com.svarogsoft.englishblitz {
    namespace data {
      interface com.svarogsoft.englishblitz.studylogic.ICardModel {
      }
    }
  }
  

  namespace com.svarogsoft.englishblitz {
    namespace data {
      namespace command {
        abstract class com.svarogsoft.englishblitz.studylogic.command.CardCommand {
        }
      }
    }
  }
  

  namespace com.svarogsoft.englishblitz {
    namespace data {
      namespace command {
        class com.svarogsoft.englishblitz.studylogic.command.CommandHistory {
        }
      }
    }
  }
  

  namespace com.svarogsoft.englishblitz {
    namespace data {
      namespace command {
        class com.svarogsoft.englishblitz.studylogic.command.EditCommand {
        }
      }
    }
  }
  

  namespace com.svarogsoft.englishblitz {
    namespace data {
      namespace command {
        class com.svarogsoft.englishblitz.studylogic.command.IncreaseCommand {
        }
      }
    }
  }
  

  namespace com.svarogsoft.englishblitz {
    namespace data {
      namespace command {
        class com.svarogsoft.englishblitz.studylogic.command.NextCommand {
        }
      }
    }
  }
  

  namespace com.svarogsoft.englishblitz {
    namespace data {
      namespace command {
        class com.svarogsoft.englishblitz.studylogic.command.PassCommand {
        }
      }
    }
  }
  

  namespace com.svarogsoft.englishblitz {
    namespace logic {
      enum ActionCardMode {
      }
    }
  }
  

  namespace com.svarogsoft.englishblitz {
    namespace logic {
      class com.svarogsoft.englishblitz.studylogic.CardPresenter {
      }
    }
  }
  

  namespace com.svarogsoft.englishblitz {
    namespace logic {
      interface com.svarogsoft.englishblitz.studylogic.ICardPresenter {
      }
    }
  }
  

  namespace com.svarogsoft.englishblitz {
    namespace logic {
      class com.svarogsoft.englishblitz.importlogic.ImportPresenter {
      }
    }
  }
  

  namespace com.svarogsoft.englishblitz {
    namespace logic {
      enum PartsOfSpeech {
      }
    }
  }
  

  namespace com.svarogsoft.englishblitz {
    namespace logic {
      enum StateCard {
      }
    }
  }
  

  namespace com.svarogsoft.englishblitz {
    namespace logic {
      enum StudyMode {
      }
    }
  }
  

  namespace com.svarogsoft.englishblitz {
    namespace view {
      class com.svarogsoft.englishblitz.view.CardActivity {
      }
    }
  }
  

  namespace com.svarogsoft.englishblitz {
    namespace view {
      class com.svarogsoft.englishblitz.studylogic.CardGestureListener {
      }
    }
  }
  

  namespace com.svarogsoft.englishblitz {
    namespace view {
      class com.svarogsoft.englishblitz.view.ClearDialogFragment {
      }
    }
  }
  

  namespace com.svarogsoft.englishblitz {
    namespace view {
      class com.svarogsoft.englishblitz.dictionary.CursorFilter {
      }
    }
  }
  

  namespace com.svarogsoft.englishblitz {
    namespace view {
      abstract class com.svarogsoft.englishblitz.dictionary.CursorRecyclerAdapter {
      }
    }
  }
  

  namespace com.svarogsoft.englishblitz {
    namespace view {
      class com.svarogsoft.englishblitz.view.DictionaryActivity {
      }
    }
  }
  

  namespace com.svarogsoft.englishblitz {
    namespace view {
      class com.svarogsoft.englishblitz.dictionary.DictionaryAdapter {
      }
    }
  }
  

  namespace com.svarogsoft.englishblitz {
    namespace view {
      class com.svarogsoft.englishblitz.view.EditCardActivity {
      }
    }
  }
  

  namespace com.svarogsoft.englishblitz {
    namespace view {
      class com.svarogsoft.englishblitz.view.EditDictionaryActivity {
      }
    }
  }
  

  namespace com.svarogsoft.englishblitz {
    namespace view {
      class com.svarogsoft.englishblitz.dictionary.FilesAdapter {
      }
    }
  }
  

  namespace com.svarogsoft.englishblitz {
    namespace view {
      interface com.svarogsoft.englishblitz.studylogic.ICardView {
      }
    }
  }
  

  namespace com.svarogsoft.englishblitz {
    namespace view {
      interface com.svarogsoft.englishblitz.dictionary.IClearDataBase {
      }
    }
  }
  

  namespace com.svarogsoft.englishblitz {
    namespace view {
      interface com.svarogsoft.englishblitz.dictionary.IImportView {
      }
    }
  }
  

  namespace com.svarogsoft.englishblitz {
    namespace view {
      class com.svarogsoft.englishblitz.view.ImportActivity {
      }
    }
  }
  

  namespace com.svarogsoft.englishblitz {
    namespace view {
      class com.svarogsoft.englishblitz.view.MainActivity {
      }
    }
  }
  

  namespace com.svarogsoft.englishblitz {
    namespace view {
      class com.svarogsoft.englishblitz.view.MenuDictionaryActivity {
      }
    }
  }
  

  namespace com.svarogsoft.englishblitz {
    namespace view {
      class com.svarogsoft.englishblitz.view.OpenFileDialogActivity {
      }
    }
  }
  

  namespace com.svarogsoft.englishblitz {
    namespace view {
      class com.svarogsoft.englishblitz.view.PartsActivity {
      }
    }
  }
  

  namespace com.svarogsoft.englishblitz {
    namespace view {
      class com.svarogsoft.englishblitz.view.SelectionActivity {
      }
    }
  }
  

  namespace com.svarogsoft.englishblitz {
    namespace view {
      class com.svarogsoft.englishblitz.view.SettingsActivity {
      }
    }
  }
  

  namespace com.svarogsoft.englishblitz {
    namespace view {
      class com.svarogsoft.englishblitz.view.ThemeActivity {
      }
    }
  }
  

  namespace com.svarogsoft.englishblitz {
    namespace view {
      class com.svarogsoft.englishblitz.view.ThemeAdapter {
      }
    }
  }
  

  com.svarogsoft.englishblitz.studylogic.Card o-- com.svarogsoft.englishblitz.studylogic.StateCard : state
  com.svarogsoft.englishblitz.data.CardModelTest o-- com.svarogsoft.englishblitz.studylogic.Card : currentCard
  com.svarogsoft.englishblitz.data.CardModelTest o-- com.svarogsoft.englishblitz.studylogic.StudyMode : studyMode
  com.svarogsoft.englishblitz.data.DatabaseAdapter o-- com.svarogsoft.englishblitz.data.DatabaseHelper : databaseHelper
  com.svarogsoft.englishblitz.data.DatabaseHelper -up-|> android.database.sqlite.SQLiteOpenHelper
  com.svarogsoft.englishblitz.studylogic.DatabaseImportModel o-- com.svarogsoft.englishblitz.data.DatabaseAdapter : databaseAdapter
  com.svarogsoft.englishblitz.card.DeckModel o-- com.svarogsoft.englishblitz.studylogic.Card : currentCard
  com.svarogsoft.englishblitz.card.DeckModel o-- com.svarogsoft.englishblitz.data.DatabaseAdapter : databaseAdapter
  com.svarogsoft.englishblitz.card.DeckModel o-- com.svarogsoft.englishblitz.studylogic.command.CommandHistory : history
  com.svarogsoft.englishblitz.card.DeckModel o-- com.svarogsoft.englishblitz.studylogic.PartsOfSpeech : partOfSpeechMode
  com.svarogsoft.englishblitz.card.DeckModel o-- com.svarogsoft.englishblitz.studylogic.StudyMode : studyMode
  com.svarogsoft.englishblitz.studylogic.command.CardCommand o-- com.svarogsoft.englishblitz.card.DeckModel : deckModel
  com.svarogsoft.englishblitz.studylogic.command.EditCommand -up-|> com.svarogsoft.englishblitz.studylogic.command.CardCommand
  com.svarogsoft.englishblitz.studylogic.command.IncreaseCommand -up-|> com.svarogsoft.englishblitz.studylogic.command.CardCommand
  com.svarogsoft.englishblitz.studylogic.command.NextCommand -up-|> com.svarogsoft.englishblitz.studylogic.command.CardCommand
  com.svarogsoft.englishblitz.studylogic.command.PassCommand -up-|> com.svarogsoft.englishblitz.studylogic.command.CardCommand
  com.svarogsoft.englishblitz.studylogic.CardPresenter o-- com.svarogsoft.englishblitz.card.DeckModel : deckModel
  com.svarogsoft.englishblitz.studylogic.CardPresenter o-- com.svarogsoft.englishblitz.studylogic.ICardView : iCardView
  com.svarogsoft.englishblitz.studylogic.CardPresenter o-- com.svarogsoft.englishblitz.studylogic.StudyMode : studyMode
  com.svarogsoft.englishblitz.importlogic.ImportPresenter o-- com.svarogsoft.englishblitz.studylogic.DatabaseImportModel : databaseImportModel
  com.svarogsoft.englishblitz.importlogic.ImportPresenter o-- com.svarogsoft.englishblitz.dictionary.IImportView : importView
  com.svarogsoft.englishblitz.view.CardActivity .up.|> com.svarogsoft.englishblitz.studylogic.ICardView
  com.svarogsoft.englishblitz.view.CardActivity -up-|> androidx.appcompat.app.AppCompatActivity
  com.svarogsoft.englishblitz.view.CardActivity o-- com.svarogsoft.englishblitz.studylogic.CardPresenter : presenter
  com.svarogsoft.englishblitz.view.CardActivity o-- com.svarogsoft.englishblitz.studylogic.StudyMode : studyMode
  com.svarogsoft.englishblitz.view.CardActivity o-- com.svarogsoft.englishblitz.studylogic.PartsOfSpeech : typeWordMode
  com.svarogsoft.englishblitz.studylogic.CardGestureListener -up-|> android.view.GestureDetector.SimpleOnGestureListener
  com.svarogsoft.englishblitz.studylogic.CardGestureListener o-- com.svarogsoft.englishblitz.studylogic.CardPresenter : presenter
  com.svarogsoft.englishblitz.view.ClearDialogFragment -up-|> androidx.fragment.app.DialogFragment
  com.svarogsoft.englishblitz.view.ClearDialogFragment o-- com.svarogsoft.englishblitz.dictionary.IClearDataBase : clearDataBase
  com.svarogsoft.englishblitz.dictionary.CursorFilter -up-|> android.widget.Filter
  com.svarogsoft.englishblitz.dictionary.CursorFilter o-- com.svarogsoft.englishblitz.dictionary.CursorFilter.CursorFilterClient : client
  com.svarogsoft.englishblitz.dictionary.CursorRecyclerAdapter .up.|> android.widget.Filterable
  com.svarogsoft.englishblitz.dictionary.CursorRecyclerAdapter .up.|> com.svarogsoft.englishblitz.dictionary.CursorFilter.CursorFilterClient
  com.svarogsoft.englishblitz.dictionary.CursorRecyclerAdapter -up-|> androidx.recyclerview.widget.RecyclerView.Adapter
  com.svarogsoft.englishblitz.dictionary.CursorRecyclerAdapter o-- com.svarogsoft.englishblitz.dictionary.CursorRecyclerAdapter.ChangeObserver : changeObserver
  com.svarogsoft.englishblitz.dictionary.CursorRecyclerAdapter o-- com.svarogsoft.englishblitz.dictionary.CursorFilter : cursorFilter
  com.svarogsoft.englishblitz.view.DictionaryActivity -up-|> androidx.appcompat.app.AppCompatActivity
  com.svarogsoft.englishblitz.view.DictionaryActivity o-- com.svarogsoft.englishblitz.data.DatabaseAdapter : databaseAdapter
  com.svarogsoft.englishblitz.view.DictionaryActivity o-- com.svarogsoft.englishblitz.dictionary.DictionaryAdapter : dictionaryAdapter
  com.svarogsoft.englishblitz.dictionary.DictionaryAdapter -up-|> com.svarogsoft.englishblitz.dictionary.CursorRecyclerAdapter
  com.svarogsoft.englishblitz.dictionary.DictionaryAdapter o-- com.svarogsoft.englishblitz.dictionary.DictionaryAdapter.OnWordClickListener : onWordClickListener
  com.svarogsoft.englishblitz.view.EditCardActivity -up-|> androidx.appcompat.app.AppCompatActivity
  com.svarogsoft.englishblitz.view.EditDictionaryActivity -up-|> androidx.appcompat.app.AppCompatActivity
  com.svarogsoft.englishblitz.dictionary.FilesAdapter -up-|> androidx.recyclerview.widget.RecyclerView.Adapter
  com.svarogsoft.englishblitz.dictionary.FilesAdapter o-- com.svarogsoft.englishblitz.dictionary.FilesAdapter.OnFileClickListener : onFileClickListener
  com.svarogsoft.englishblitz.view.ImportActivity .up.|> com.svarogsoft.englishblitz.dictionary.IImportView
  com.svarogsoft.englishblitz.view.ImportActivity -up-|> androidx.appcompat.app.AppCompatActivity
  com.svarogsoft.englishblitz.view.ImportActivity o-- com.svarogsoft.englishblitz.importlogic.ImportPresenter : importPresenter
  com.svarogsoft.englishblitz.view.MainActivity -up-|> androidx.appcompat.app.AppCompatActivity
  com.svarogsoft.englishblitz.view.MenuDictionaryActivity .up.|> com.svarogsoft.englishblitz.dictionary.IClearDataBase
  com.svarogsoft.englishblitz.view.MenuDictionaryActivity -up-|> androidx.appcompat.app.AppCompatActivity
  com.svarogsoft.englishblitz.view.OpenFileDialogActivity -up-|> androidx.appcompat.app.AppCompatActivity
  com.svarogsoft.englishblitz.view.OpenFileDialogActivity o-- com.svarogsoft.englishblitz.importlogic.FileManager : fileManager
  com.svarogsoft.englishblitz.view.OpenFileDialogActivity o-- com.svarogsoft.englishblitz.dictionary.FilesAdapter : filesAdapter
  com.svarogsoft.englishblitz.view.OpenFileDialogActivity o-- com.svarogsoft.englishblitz.dictionary.FilesAdapter.OnFileClickListener : onFileClickListener
  com.svarogsoft.englishblitz.view.PartsActivity -up-|> androidx.appcompat.app.AppCompatActivity
  com.svarogsoft.englishblitz.view.SelectionActivity -up-|> androidx.appcompat.app.AppCompatActivity
  com.svarogsoft.englishblitz.view.SelectionActivity o-- com.svarogsoft.englishblitz.studylogic.StudyMode : studyMode
  com.svarogsoft.englishblitz.view.SelectionActivity o-- com.svarogsoft.englishblitz.studylogic.PartsOfSpeech : typeWordMode
  com.svarogsoft.englishblitz.view.SettingsActivity -up-|> androidx.appcompat.app.AppCompatActivity
  com.svarogsoft.englishblitz.view.ThemeActivity -up-|> androidx.appcompat.app.AppCompatActivity
  com.svarogsoft.englishblitz.view.ThemeAdapter -up-|> androidx.recyclerview.widget.RecyclerView.Adapter
  com.svarogsoft.englishblitz.view.ThemeAdapter o-- com.svarogsoft.englishblitz.view.ThemeAdapter.OnCaptionClickListener : onCaptionClickListener


right footer


PlantUML diagram generated by SketchIt! (https://bitbucket.org/pmesmeur/sketch.it)
For more information about this tool, please contact philippe.mesmeur@gmail.com
endfooter

@enduml
